<?xml version="1.0" encoding="UTF-8" standalone="no"?>
<svg
   xmlns:dc="http://purl.org/dc/elements/1.1/"
   xmlns:cc="http://creativecommons.org/ns#"
   xmlns:rdf="http://www.w3.org/1999/02/22-rdf-syntax-ns#"
   xmlns:svg="http://www.w3.org/2000/svg"
   xmlns="http://www.w3.org/2000/svg"
   xmlns:sodipodi="http://sodipodi.sourceforge.net/DTD/sodipodi-0.dtd"
   xmlns:inkscape="http://www.inkscape.org/namespaces/inkscape"
   inkscape:version="1.0 (4035a4fb49, 2020-05-01)"
   sodipodi:docname="ic_placeholder.svg"
   version="1.1"
   width="48"
   viewBox="0 0 48 48"
   height="48"
   enable-background="new 0 0 512 512"
   id="Icons"
   inkscape:export-filename="/files/programming/hnau.org/test/Cats/app/src/main/res/drawable-mdpi/ic_launcher.png"
   inkscape:export-xdpi="288"
   inkscape:export-ydpi="288">
  <metadata
     id="metadata1178">
    <rdf:RDF>
      <cc:Work
         rdf:about="">
        <dc:format>image/svg+xml</dc:format>
        <dc:type
           rdf:resource="http://purl.org/dc/dcmitype/StillImage" />
        <dc:title></dc:title>
      </cc:Work>
    </rdf:RDF>
  </metadata>
  <defs
     id="defs1176" />
  <sodipodi:namedview
     inkscape:current-layer="Icons"
     inkscape:window-maximized="1"
     inkscape:window-y="33"
     inkscape:window-x="0"
     inkscape:cy="25.623682"
     inkscape:cx="17.80145"
     inkscape:zoom="13.046875"
     showgrid="true"
     id="namedview1174"
     inkscape:window-height="1047"
     inkscape:window-width="1920"
     inkscape:pageshadow="2"
     inkscape:pageopacity="0"
     guidetolerance="10"
     gridtolerance="10"
     objecttolerance="10"
     borderopacity="1"
     bordercolor="#666666"
     pagecolor="#ffffff"
     inkscape:document-rotation="0">
    <inkscape:grid
       id="grid1660"
       type="xygrid" />
  </sodipodi:namedview>
  <path
     d="M 4.2753906 1 C 2.4607477 1 1 2.4607477 1 4.2753906 L 1 43.724609 C 1 45.539252 2.4607477 47 4.2753906 47 L 43.724609 47 C 45.539252 47 47 45.539252 47 43.724609 L 47 4.2753906 C 47 2.4607477 45.539252 1 43.724609 1 L 4.2753906 1 z "
     style="opacity:1;fill:#000000;fill-opacity:1;stroke-width:2;stroke-linecap:round"
     id="rect1114" />
  <path
     style="stroke-width:0.09375"
     id="path1034"
     fill="#ea792e"
     d="m 37.7835,20.608875 0.0022,8.44e-4 c 0,0 1.25325,-3.851532 1.25325,-7.610532 0,-2.076843 -0.918562,-3.8910933 -1.74075,-5.0988745 C 36.710813,7.0375312 35.473031,6.9479062 34.767188,7.7168437 L 26.900531,16.287187 H 21.099469 L 13.232813,7.7168438 C 12.527063,6.9479063 11.289188,7.0375313 10.701844,7.9003125 9.8796563,9.1080937 8.9610938,10.922344 8.9610938,12.999187 c 0,3.759094 1.2532502,7.610532 1.2532502,7.610532 l 0.0022,-8.44e-4 C 9.9878438,21.043219 9.7951875,21.501937 9.6459375,21.983437 9.18,23.485313 8.9615625,24.99 8.9615625,26.460937 c 0,8.0025 6.4856255,15.001875 15.0384375,15.001875 4.276875,0 8.03625,-1.750312 10.726875,-4.5 3.679687,-3.76125 5.359687,-9.39375 3.627187,-14.979375 -0.149249,-0.4815 -0.341906,-0.940218 -0.570562,-1.374562 z" />
  <path
     style="stroke-width:0.09375"
     id="path1036"
     fill="#dd5e26"
     d="M 21.099469,16.287187 13.232813,7.7168438 C 12.527063,6.9479063 11.289188,7.0375313 10.701844,7.9003125 9.8796563,9.1080937 8.9610938,10.922344 8.9610938,12.999187 c 0,3.759094 1.2532502,7.610532 1.2532502,7.610532 l 0.0022,-8.44e-4 C 9.9878438,21.043219 9.7951875,21.501937 9.6459375,21.983437 9.18,23.485313 8.9615625,24.99 8.9615625,26.460937 c 0,8.0025 6.4856255,15.001875 15.0384375,15.001875 V 16.287187 Z" />
  <path
     style="stroke-width:0.09375"
     id="path1040"
     fill="#bf5e39"
     d="m 10.419375,14.828438 c 0,1.330312 0.207187,2.675624 0.4275,3.734062 0.226875,1.0875 1.377188,1.709062 2.409375,1.298437 L 14.13,19.514063 17.230312,18.283125 c 1.163438,-0.462188 1.502813,-1.94625 0.65625,-2.86875 L 15.031875,12.304688 15.03,12.302812 13.665,10.815 c -0.534375,-0.58125 -1.47375,-0.519375 -1.918125,0.133125 -0.62625,0.916875 -1.3275,2.29875 -1.3275,3.880313 z" />
  <path
     style="stroke-width:0.09375"
     id="path1042"
     fill="#ea792e"
     d="m 12.537187,18.317812 1.592813,1.19625 3.100312,-1.230937 c 1.163438,-0.462188 1.502813,-1.94625 0.65625,-2.86875 l -2.854687,-3.109687 -0.0019,-0.0019 -1.535625,-0.327187 c -0.331875,-0.07125 -0.580312,0.299063 -0.39,0.579375 l 1.187812,1.28625 c 0.355313,0.384375 0.02719,1.00125 -0.489375,0.921562 L 12.67685,14.589351 c -0.3525,0 -0.511875,0.440625 -0.24,0.666563 l 1.862813,1.36125 c 0.425624,0.310312 0.215625,0.983437 -0.310313,0.998437 L 12.675,17.65125 c -0.309375,0.07406 -0.392813,0.475313 -0.137813,0.666562 z" />
  <path
     style="stroke-width:0.09375"
     id="path1046"
     fill="#dd5e26"
     d="m 37.580625,14.828438 c 0,1.330312 -0.207187,2.675624 -0.4275,3.734062 -0.226875,1.0875 -1.377188,1.709062 -2.409375,1.298437 L 33.87,19.514063 30.769688,18.283125 c -1.163438,-0.462188 -1.502813,-1.94625 -0.65625,-2.86875 l 2.854687,-3.109687 0.0019,-0.0019 1.365,-1.487812 c 0.534375,-0.58125 1.47375,-0.519375 1.918125,0.133125 0.62625,0.916875 1.3275,2.29875 1.3275,3.880313 z" />
  <path
     style="stroke-width:0.09375"
     id="path1048"
     fill="#f39e22"
     d="M 35.462812,18.317812 33.87,19.514062 30.769687,18.283125 c -1.163437,-0.462188 -1.502812,-1.94625 -0.65625,-2.86875 l 2.854688,-3.109687 0.0019,-0.0019 1.535625,-0.327187 c 0.331875,-0.07125 0.580312,0.299063 0.39,0.579375 l -1.187813,1.28625 c -0.355312,0.384375 -0.02719,1.00125 0.489375,0.921562 l 1.125938,-0.173437 c 0.3525,0 0.511875,0.440625 0.24,0.666563 l -1.862813,1.36125 c -0.425625,0.310312 -0.215625,0.983437 0.310313,0.998437 l 1.31435,0.03565 c 0.309375,0.07406 0.392812,0.475313 0.137812,0.666562 z" />
  <path
     style="stroke-width:0.09375"
     d="m 35.806313,7.751625 -0.376782,0.2761875 c -0.2715,0.1990313 -0.310406,0.6075 -0.087,0.912375 l 1.922438,2.6227505 c 0.2235,0.304874 0.62475,0.390656 0.89625,0.191624 0.241312,-0.176812 0.302812,-0.524156 0.145125,-0.819843 L 36.760594,8.0357813 C 36.562875,7.6649062 36.109031,7.5297188 35.806313,7.751625 Z"
     fill="#f39e22"
     id="path1052" />
  <path
     style="stroke-width:0.09375"
     d="m 12.193687,7.751625 0.376782,0.2761875 c 0.2715,0.1990313 0.310406,0.6075 0.087,0.912375 l -1.922438,2.6227505 c -0.2235,0.304874 -0.62475,0.390656 -0.8962497,0.191624 C 9.5974688,11.57775 9.5359688,11.230406 9.6936563,10.934719 L 11.239406,8.0357813 C 11.437125,7.6649062 11.890969,7.5297187 12.193687,7.751625 Z"
     fill="#ea792e"
     id="path1054" />
  <path
     style="stroke-width:0.09375"
     d="M 25.450313,25.987406 C 24.649313,25.987406 24,25.338094 24,24.537094 v -5.487469 c 0,-0.801 0.649312,-1.450313 1.450313,-1.450313 0.800999,0 1.450312,0.649313 1.450312,1.450313 v 5.487469 c -9.4e-5,0.801 -0.649406,1.450312 -1.450312,1.450312 z"
     fill="#f39e22"
     id="path1056" />
  <path
     style="stroke-width:0.09375"
     d="m 22.549687,25.987406 c -0.801,0 -1.450312,-0.649312 -1.450312,-1.450312 v -5.487469 c 0,-0.801 0.649312,-1.450313 1.450312,-1.450313 0.801,0 1.450313,0.649313 1.450313,1.450313 v 5.487469 c 0,0.801 -0.649313,1.450312 -1.450313,1.450312 z"
     fill="#ea792e"
     id="path1058" />
  <path
     style="stroke-width:0.09375"
     d="M 31.055906,21.865687 H 30.0885 c -0.805406,0 -1.458375,0.652969 -1.458375,1.458376 v 1.296843 c 0,0.805407 0.652969,1.458375 1.458375,1.458375 h 0.967406 c 0.805406,0 1.458375,-0.652968 1.458375,-1.458375 v -1.296844 c 0,-0.805406 -0.652969,-1.458375 -1.458375,-1.458375 z"
     fill="#dd5e26"
     id="path1060" />
  <path
     style="stroke-width:0.09375"
     d="m 17.9115,21.865687 h -0.967406 c -0.805406,0 -1.458375,0.652969 -1.458375,1.458376 v 1.296843 c 0,0.805407 0.652969,1.458375 1.458375,1.458375 H 17.9115 c 0.805406,0 1.458375,-0.652968 1.458375,-1.458375 v -1.296844 c 0,-0.805406 -0.652969,-1.458375 -1.458375,-1.458375 z"
     fill="#bf5e39"
     id="path1062" />
  <path
     style="stroke-width:0.09375"
     d="m 33.990188,28.875 c 0,-1.297875 -2.421375,-2.350031 -3.719251,-2.350031 -1.297875,0 -2.350031,1.052156 -2.350031,2.350031 0,1.297875 1.052156,2.350031 2.350031,2.350031 1.297875,0 3.719251,-1.052156 3.719251,-2.350031 z"
     fill="#fbcb74"
     id="path1066" />
  <path
     style="stroke-width:0.09375"
     d="m 31.456312,27.83625 v 2.0775 c 0,0.24375 -0.09938,0.465 -0.25875,0.625313 -0.541687,0.552187 -1.515281,0.158343 -1.509375,-0.625313 v -2.0775 c 0.04284,-1.167563 1.720875,-1.17675 1.768125,0 z"
     fill="#3f5d77"
     id="path1070" />
  <path
     style="stroke-width:0.09375"
     d="m 31.456312,27.83625 v 2.0775 c -4.68e-4,0.248813 -0.10275,0.475219 -0.27,0.635625 -0.399375,-0.08531 -0.698437,-0.439688 -0.698437,-0.864375 v -2.0775 c 0,-0.249375 0.104062,-0.475313 0.270937,-0.635625 0.398438,0.08531 0.6975,0.439687 0.6975,0.864375 z"
     fill="#2e3140"
     id="path1074" />
  <path
     style="stroke-width:0.09375"
     d="m 32.631469,28.284281 c 0,-0.46275 -0.375188,-0.837937 -0.837938,-0.837937 -1.111031,0.04294 -1.11075,1.633219 0,1.675969 0.46275,0 0.837938,-0.375188 0.837938,-0.838032 z"
     fill="#ffffff"
     id="path1078" />
  <path
     style="stroke-width:0.09375"
     d="m 14.009812,28.875 c 0,-1.297875 2.421375,-2.350031 3.71925,-2.350031 1.297875,0 2.350032,1.052156 2.350032,2.350031 0,1.297875 -1.052157,2.350031 -2.350032,2.350031 -1.297781,0 -3.71925,-1.052156 -3.71925,-2.350031 z"
     fill="#fbcb74"
     id="path1084" />
  <path
     style="stroke-width:0.09375"
     d="m 18.311812,27.83625 v 2.0775 c 0,0.24375 -0.09937,0.465 -0.25875,0.625313 -0.541687,0.552187 -1.515281,0.158343 -1.509375,-0.625313 v -2.0775 c 0.04294,-1.167563 1.720969,-1.17675 1.768125,0 z"
     fill="#3f5d77"
     id="path1088" />
  <path
     style="stroke-width:0.09375"
     d="m 18.311812,27.83625 v 2.0775 c -4.68e-4,0.248813 -0.10275,0.475219 -0.27,0.635625 -0.399375,-0.08531 -0.698437,-0.439688 -0.698437,-0.864375 v -2.0775 c 0,-0.249375 0.104063,-0.475313 0.270937,-0.635625 0.398438,0.08531 0.6975,0.439687 0.6975,0.864375 z"
     fill="#2e3140"
     id="path1092" />
  <path
     style="stroke-width:0.09375"
     d="m 17.725031,28.284281 c 0,-0.46275 0.375188,-0.837937 0.837938,-0.837937 1.111031,0.04294 1.11075,1.633219 0,1.675969 -0.46275,0 -0.837938,-0.375188 -0.837938,-0.838032 z"
     fill="#ffffff"
     id="path1096" />
  <path
     style="stroke-width:0.09375"
     d="m 30.567188,35.841563 c 0,1.078125 -0.259688,2.095312 -0.720001,2.9925 C 28.75875,40.956563 26.549062,42.40875 24,42.40875 c -3.627187,0 -6.567188,-2.94 -6.567188,-6.567187 0,-2.174063 1.055625,-4.100626 2.683125,-5.295001 1.0875,-0.799687 2.430938,-1.272187 3.884063,-1.272187 3.627187,0 6.567188,2.94 6.567188,6.567188 z"
     fill="#ea792e"
     id="path1104" />
  <path
     style="stroke-width:0.09375"
     d="m 30.567188,35.841563 c 0,1.078125 -0.259688,2.095312 -0.720001,2.9925 -1.0875,0.799687 -2.430937,1.272187 -3.884062,1.272187 -3.627188,0 -6.567188,-2.94 -6.567188,-6.567188 0,-1.078125 0.259688,-2.095312 0.72,-2.9925 1.0875,-0.799687 2.430938,-1.272187 3.884063,-1.272187 3.627187,0 6.567188,2.94 6.567188,6.567188 z"
     fill="#f39e22"
     id="path1108" />
  <path
     style="stroke-width:0.09375"
     d="m 25.170562,34.660031 c -0.646406,0 -1.170374,-0.523968 -1.170374,-1.170375 v -2.658281 c 0,-0.646406 0.523968,-1.170375 1.170374,-1.170375 0.646407,0 1.170375,0.523969 1.170375,1.170375 v 2.658281 c 0,0.646407 -0.523968,1.170375 -1.170375,1.170375 z"
     fill="#f9c744"
     id="path1112" />
  <ellipse
     style="stroke-width:0.09375"
     cx="24"
     cy="39.952499"
     fill="#f39e22"
     rx="3.034781"
     ry="1.8513749"
     id="ellipse1116" />
  <circle
     style="stroke-width:0.09375"
     cx="27.910969"
     cy="36.614998"
     fill="#f9c744"
     r="1.6214063"
     id="circle1120" />
  <circle
     style="stroke-width:0.09375"
     cx="20.089031"
     cy="36.614998"
     fill="#f9c744"
     r="1.6214063"
     id="circle1124" />
  <path
     style="stroke-width:0.09375"
     d="m 31.047281,35.372813 c -0.258844,0 -0.46875,0.209906 -0.46875,0.46875 0,1.311187 -0.312375,2.273343 -0.928406,2.859749 C 28.966031,39.3525 28.134656,39.319594 28.1025,39.318 l -0.02944,-9.38e-4 c -0.842718,0 -1.234781,-0.351937 -1.731281,-0.797624 -0.466219,-0.418501 -0.987,-0.884063 -1.888781,-1.006032 v -0.541031 c 0.125812,-0.04997 0.243937,-0.119906 0.348469,-0.210188 0.269812,-0.233156 0.424593,-0.571312 0.424593,-0.92775 v -0.02128 c 0,-0.07931 0.0645,-0.143812 0.143719,-0.143812 h 0.214125 c 0.258844,0 0.46875,-0.209906 0.46875,-0.46875 v -0.979782 c 0,-0.258843 -0.209906,-0.46875 -0.46875,-0.46875 h -3.167343 c -0.258844,0 -0.46875,0.209907 -0.46875,0.46875 v 0.979782 c 0,0.258844 0.209906,0.46875 0.46875,0.46875 h 0.214124 c 0.07922,0 0.143719,0.0645 0.143719,0.143812 0,0.506344 0.303094,0.954094 0.741094,1.146281 v 0.553969 c -0.901781,0.121969 -1.422563,0.587531 -1.888781,1.006031 -0.4965,0.445594 -0.888656,0.797625 -1.731282,0.797625 l -0.02044,4.69e-4 c -0.03516,10e-4 -0.85575,0.02334 -1.532812,-0.629344 -0.610969,-0.589124 -0.920813,-1.546875 -0.920813,-2.846624 0,-0.258844 -0.209906,-0.46875 -0.46875,-0.46875 -0.258844,0 -0.46875,0.209906 -0.46875,0.46875 0,1.574812 0.411656,2.764781 1.223531,3.536812 0.926625,0.881063 2.045156,0.880687 2.196,0.876281 1.196344,-0.0024 1.808907,-0.552281 2.349469,-1.037437 0.4965,-0.445594 0.888656,-0.797625 1.731281,-0.797625 0.842625,0 1.234782,0.351937 1.731281,0.797625 0.540094,0.484875 1.152188,1.034156 2.346844,1.037437 0.01434,5.63e-4 0.03609,0.0011 0.06441,0.0011 0.294937,0 1.304249,-0.06253 2.154093,-0.860531 0.819656,-0.769594 1.235156,-1.965187 1.235156,-3.553594 9.4e-5,-0.258937 -0.209718,-0.468843 -0.468656,-0.468843 z"
     fill="#bf5e39"
     id="path1130" />
  <path
     style="stroke-width:0.09375"
     d="m 23.243156,35.43825 c 0,0.378094 0.268313,0.715031 0.642469,0.769875 0.468937,0.06872 0.871594,-0.292875 0.871594,-0.748594 v -0.02128 c 0,-0.33825 0.274219,-0.612563 0.612562,-0.612563 h 0.214125 c 0.418125,0 0.757031,-0.338906 0.757031,-0.757031 0,-0.418125 -0.338906,-0.757031 -0.757031,-0.757031 h -3.167343 c -0.418125,0 -0.757032,0.338906 -0.757032,0.757031 0,0.418125 0.338907,0.757031 0.757032,0.757031 h 0.214124 c 0.338251,0 0.612469,0.274219 0.612469,0.612563 z"
     fill="#ed72ab"
     id="path1132" />
  <path
     style="stroke-width:0.09375"
     d="M 25.224562,34.348594 H 23.43975 c -0.286313,0 -0.518438,-0.232125 -0.518438,-0.518438 0,-0.286312 0.232125,-0.518437 0.518438,-0.518437 h 1.784812 c 0.286313,0 0.518438,0.232125 0.518438,0.518437 0,0.286313 -0.232125,0.518438 -0.518438,0.518438 z"
     fill="#f0a6b3"
     id="path1136" />
  <path
     style="stroke-width:0.09375"
     id="path1144"
     fill="#ebd9ea"
     d="m 36.729375,39.219375 c -0.02062,-0.04312 -0.510938,-1.064063 -1.889063,-1.722188 -0.663749,-0.316875 -1.405312,-0.496875 -2.222812,-0.54 -1.395,-0.07312 -3.010312,0.252188 -4.828125,0.974063 -0.167813,0.0675 -0.250313,0.257812 -0.18375,0.426562 0.0675,0.167813 0.257813,0.250313 0.426563,0.18375 1.77375,-0.705 3.3675,-1.010625 4.70625,-0.91125 0.65625,0.04875 1.251562,0.195 1.776562,0.43875 1.186875,0.55125 1.617187,1.42125 1.62,1.42875 0.05625,0.119063 0.174375,0.189375 0.297188,0.189375 0.04687,0 0.09469,-0.01031 0.139687,-0.03094 0.164063,-0.07781 0.234375,-0.272813 0.1575,-0.436875 z m 3.720937,-3.411563 C 40.404375,35.77125 39.300937,34.89 37.17,34.51875 c -1.11,-0.193125 -2.63625,-0.263437 -4.538438,0.107812 -1.418437,0.275625 -3.045937,0.796875 -4.865625,1.694063 -0.162187,0.08062 -0.229687,0.276562 -0.149062,0.439687 0.05719,0.115313 0.173437,0.182813 0.294375,0.182813 0.04875,0 0.09844,-0.01125 0.144375,-0.03375 1.681875,-0.82875 3.186562,-1.324688 4.50375,-1.599375 1.877813,-0.392813 3.374063,-0.335625 4.452188,-0.152813 1.979062,0.335625 3.015,1.153125 3.025312,1.160625 0.140625,0.114375 0.346875,0.09281 0.46125,-0.04781 0.114375,-0.140625 0.09281,-0.347813 -0.04781,-0.462188 z m 3.825,-3.703125 c -0.0675,-0.02906 -1.689375,-0.698437 -4.549687,-0.711562 -1.595625,-0.0047 -3.782812,0.201562 -6.415312,0.99 -1.681876,0.504375 -3.546563,1.245938 -5.554688,2.32125 -0.159375,0.08531 -0.219375,0.284062 -0.134063,0.444375 0.05906,0.110625 0.1725,0.173438 0.289688,0.173438 0.0525,0 0.105,-0.01312 0.154687,-0.03937 1.767188,-0.945938 3.418125,-1.628438 4.925625,-2.114063 2.744063,-0.884062 5.013751,-1.119375 6.650625,-1.119375 h 0.03844 c 2.743125,0.0056 4.324688,0.653438 4.339688,0.66 0.166874,0.07031 0.36,-0.0084 0.430312,-0.175312 0.07031,-0.166875 -0.0084,-0.359063 -0.175313,-0.429376 z" />
  <path
     d="m 36.729375,39.219375 c 0.07688,0.164062 0.0066,0.359062 -0.1575,0.436875 -0.045,0.02063 -0.09281,0.03094 -0.139688,0.03094 -0.122812,0 -0.240937,-0.07031 -0.297187,-0.189374 -0.0028,-0.0075 -0.433125,-0.877501 -1.62,-1.428751 -0.525,-0.24375 -1.120313,-0.39 -1.776563,-0.438749 C 32.68875,37.409062 32.6475,37.185 32.6175,36.957187 c 0.8175,0.04313 1.559062,0.223125 2.222812,0.54 1.378125,0.658125 1.868438,1.679063 1.889063,1.722188 z"
     id="path1146"
     style="fill:#ffffff;stroke-width:0.09375" />
  <path
     d="m 40.498125,36.27 c -0.114375,0.140625 -0.320625,0.162187 -0.46125,0.04781 -0.01031,-0.0075 -1.04625,-0.825001 -3.025312,-1.160626 -1.078125,-0.182812 -2.574375,-0.24 -4.452188,0.152813 0.01406,-0.230625 0.03844,-0.458438 0.07219,-0.683438 C 34.53375,34.255313 36.06,34.325625 37.17,34.51875 c 2.130938,0.37125 3.234375,1.2525 3.280313,1.289062 0.140625,0.114375 0.162187,0.321563 0.04781,0.462188 z"
     id="path1148"
     style="fill:#ffffff;stroke-width:0.09375" />
  <path
     d="m 44.450625,32.534062 c -0.07031,0.166875 -0.263438,0.245625 -0.430312,0.175313 -0.015,-0.0066 -1.596563,-0.654375 -4.339688,-0.66 h -0.03844 c -1.636874,0 -3.906562,0.235312 -6.650625,1.119375 0.09188,-0.269063 0.19875,-0.530625 0.31875,-0.785625 2.6325,-0.788438 4.819688,-0.994688 6.415313,-0.99 2.860312,0.01312 4.482187,0.6825 4.549687,0.711562 0.166875,0.07031 0.245626,0.2625 0.175313,0.429375 z"
     id="path1150"
     style="fill:#ffffff;stroke-width:0.09375" />
  <path
     style="stroke-width:0.09375"
     id="path1156"
     fill="#ebd9ea"
     d="m 11.428406,39.65625 c 0.045,0.02063 0.09281,0.03094 0.139688,0.03094 0.122812,0 0.240937,-0.07031 0.297187,-0.189374 0.0028,-0.0075 0.433125,-0.877501 1.62,-1.428751 0.525,-0.24375 1.120313,-0.39 1.776563,-0.438749 1.33875,-0.09938 2.9325,0.206249 4.70625,0.911249 0.16875,0.06656 0.359062,-0.01594 0.426562,-0.183749 0.06656,-0.16875 -0.01594,-0.359063 -0.18375,-0.426563 -1.817812,-0.721875 -3.433125,-1.047188 -4.828125,-0.974062 -0.8175,0.04312 -1.559062,0.223124 -2.222812,0.54 -1.378125,0.658124 -1.868438,1.679062 -1.889063,1.722187 -0.07687,0.164062 -0.0066,0.359062 0.1575,0.436875 z M 7.5021562,36.27 c 0.114375,0.140625 0.320625,0.162187 0.46125,0.04781 0.010313,-0.0075 1.04625,-0.825001 3.0253128,-1.160626 1.078125,-0.182812 2.574375,-0.24 4.452187,0.152813 1.317188,0.274687 2.821875,0.770625 4.50375,1.599375 0.04594,0.0225 0.09563,0.03375 0.144375,0.03375 0.120938,0 0.237188,-0.0675 0.294375,-0.182813 0.08062,-0.163124 0.01312,-0.359062 -0.149062,-0.439687 C 18.414656,35.423438 16.787156,34.902188 15.368719,34.626563 13.466531,34.255313 11.940281,34.325625 10.830281,34.51875 8.6993437,34.89 7.5959062,35.77125 7.5499687,35.807813 7.4093437,35.922188 7.3877812,36.129375 7.5021562,36.27 Z M 3.5496563,32.534062 c 0.070312,0.166875 0.2634375,0.245625 0.4303125,0.175313 0.015,-0.0066 1.5965625,-0.654375 4.3396875,-0.66 h 0.038437 c 1.6368751,0 3.9065627,0.235312 6.6506257,1.119375 1.5075,0.485625 3.158437,1.168125 4.925625,2.114062 0.04969,0.02625 0.102187,0.03937 0.154687,0.03937 0.117188,0 0.230625,-0.06281 0.289688,-0.173437 0.08531,-0.160313 0.02531,-0.359063 -0.134063,-0.444375 -2.008125,-1.075313 -3.872812,-1.816875 -5.554687,-2.32125 -2.6325,-0.788438 -4.8196882,-0.994688 -6.4153132,-0.99 -2.8603125,0.01312 -4.4821875,0.6825 -4.5496875,0.711562 -0.166875,0.07031 -0.245625,0.2625 -0.1753124,0.429375 z" />
  <path
     d="m 11.270906,39.219375 c -0.07687,0.164062 -0.0066,0.359062 0.1575,0.436875 0.045,0.02063 0.09281,0.03094 0.139688,0.03094 0.122812,0 0.240937,-0.07031 0.297187,-0.189374 0.0028,-0.0075 0.433125,-0.877501 1.62,-1.428751 0.525,-0.24375 1.120313,-0.39 1.776563,-0.438749 0.04969,-0.221251 0.09094,-0.445313 0.120937,-0.673126 -0.8175,0.04313 -1.559062,0.223125 -2.222812,0.54 -1.378125,0.658125 -1.868438,1.679063 -1.889063,1.722188 z"
     id="path1158"
     style="fill:#ffffff;stroke-width:0.09375" />
  <path
     d="m 7.5021562,36.27 c 0.114375,0.140625 0.320625,0.162187 0.46125,0.04781 0.010313,-0.0075 1.04625,-0.825001 3.0253128,-1.160626 1.078125,-0.182812 2.574375,-0.24 4.452187,0.152813 -0.01406,-0.230625 -0.03844,-0.458438 -0.07219,-0.683438 C 13.466531,34.255313 11.940281,34.325625 10.830281,34.51875 8.6993437,34.89 7.5959062,35.77125 7.5499687,35.807812 7.4093437,35.922187 7.3877812,36.129375 7.5021562,36.27 Z"
     id="path1160"
     style="fill:#ffffff;stroke-width:0.09375" />
  <path
     d="m 3.5496563,32.534062 c 0.070312,0.166875 0.2634375,0.245625 0.4303125,0.175313 0.015,-0.0066 1.5965625,-0.654375 4.3396875,-0.66 h 0.038437 c 1.6368751,0 3.9065627,0.235312 6.6506257,1.119375 -0.09187,-0.269063 -0.19875,-0.530625 -0.31875,-0.785625 -2.6325,-0.788438 -4.8196882,-0.994688 -6.4153132,-0.99 -2.8603125,0.01312 -4.4821875,0.6825 -4.5496875,0.711562 -0.166875,0.07031 -0.245625,0.2625 -0.175312,0.429375 z"
     id="path1162"
     style="fill:#ffffff;stroke-width:0.09375" />
</svg>
